…
``` r
# install.packages("devtools")
devtools::install_github("jrosen48/railtrail")
```

Loading the data
----------------

Here is how to load the data:

``` r
railtrails <- railtrails::railtrails
railtrails
#> # A tibble: 11,420 x 8
#>                                   name distance       surface
#>                                  <chr>    <chr>         <chr>
#>  1                         Chase Trail       14  Dirt, Gravel
#>  2          Tony Knowles Coastal Trail       11       Asphalt
#>  3                Bird to Gird Pathway       13       Asphalt
#>  4            Campbell Creek Greenbelt      7.5 Asphalt, Dirt
#>  5                         Chase Trail       14  Dirt, Gravel
#>  6              Goose Lake Park Trails      1.5 Asphalt, Dirt
#>  7                    Homer Spit Trail        4       Asphalt
#>  8 Lanie Fleischer Chester Creek Trail      3.9 Asphalt, Dirt
#>  9   Palmer-Moose Creek Railroad Trail      6.1        Gravel
#> 10                    Ship Creek Trail      2.6       Asphalt
#> # ... with 11,410 more rows, and 5 more variables: category <chr>,
#> #   mean_review <int>, description <chr>, n_reviews <chr>,
#> #   raw_reviews <list>
```

"Unnesting"" trail reviews
--------------------------

You may want to "unnest" the list-column with reviews in the following way:

``` r
library(tidyr)
railtrails <- railtrails::railtrails
railtrails <- railtrails %>% unnest(raw_reviews)
railtrails
#> # A tibble: 73,059 x 8
#>                          name distance       surface        category
#>                         <chr>    <chr>         <chr>           <chr>
#>  1                Chase Trail       14  Dirt, Gravel      Rail-Trail
#>  2 Tony Knowles Coastal Trail       11       Asphalt      Rail-Trail
#>  3 Tony Knowles Coastal Trail       11       Asphalt      Rail-Trail
#>  4 Tony Knowles Coastal Trail       11       Asphalt      Rail-Trail
#>  5 Tony Knowles Coastal Trail       11       Asphalt      Rail-Trail
#>  6       Bird to Gird Pathway       13       Asphalt      Rail-Trail
#>  7       Bird to Gird Pathway       13       Asphalt      Rail-Trail
#>  8       Bird to Gird Pathway       13       Asphalt      Rail-Trail
#>  9   Campbell Creek Greenbelt      7.5 Asphalt, Dirt Greenway/Non-RT
#> 10   Campbell Creek Greenbelt      7.5 Asphalt, Dirt Greenway/Non-RT
#> # ... with 73,049 more rows, and 4 more variables: mean_review <int>,
#> #   description <chr>, n_reviews <chr>, raw_reviews <int>
```
…
