Rail-trail trail data — railtrails • railtrails
…
descriptiontext description of trail

n_reviewsnumber of reviews

raw_reviewslist column with a vector of reviews

    Source

    https://www.traillink.com/

    Examples

railtrails
#> # A tibble: 11,420 x 9
#>    state                                name distance       surface
#>    <chr>                               <chr>    <dbl>         <chr>
#>  1    AK                         Chase Trail     14.0  Dirt, Gravel
#>  2    AK          Tony Knowles Coastal Trail     11.0       Asphalt
#>  3    AK                Bird to Gird Pathway     13.0       Asphalt
#>  4    AK            Campbell Creek Greenbelt      7.5 Asphalt, Dirt
#>  5    AK                         Chase Trail     14.0  Dirt, Gravel
#>  6    AK              Goose Lake Park Trails      1.5 Asphalt, Dirt
#>  7    AK                    Homer Spit Trail      4.0       Asphalt
#>  8    AK Lanie Fleischer Chester Creek Trail      3.9 Asphalt, Dirt
#>  9    AK   Palmer-Moose Creek Railroad Trail      6.1        Gravel
#> 10    AK                    Ship Creek Trail      2.6       Asphalt
#> # ... with 11,410 more rows, and 5 more variables: category <chr>,
#> #   mean_review <int>, description <chr>, n_reviews <chr>, raw_reviews <list>
…
